INDEX VERSION 1.130+F:\FSD56\8.Adv-Java\servelets\workspace2\.metadata\.plugins\org.eclipse.jdt.core
3871100710.index
4027403211.index
4096349242.index
23757613.index
673865480.index
3225207791.index
1110514126.index
878101189.index
2612308822.index
1373908336.index
1092951875.index
3443062992.index
308301231.index
2752307446.index
3982654252.index
3074781520.index
2889170302.index
229884613.index
1145232687.index
4148090149.index
3058524960.index
