INDEX VERSION 1.3+F:\FSD56\8.Adv-Java\servelets\workspace1\.metadata\.plugins\org.eclipse.wst.jsdt.core\indexes
279433706.index
1867538469.index
1838753962.index
4145623842.index
2687276884.index
1680200167.index
